[gd_resource type="AudioBusLayout" load_steps=2 format=2]

[sub_resource type="AudioEffectFilter" id=1]
resource_name = "Filter"
resonance = 0.13
db = 3

[resource]
bus/1/name = "GameOver"
bus/1/solo = false
bus/1/mute = false
bus/1/bypass_fx = false
bus/1/volume_db = 0.0
bus/1/send = "Master"
bus/1/effect/0/effect = SubResource( 1 )
bus/1/effect/0/enabled = true
