[gd_scene load_steps=5 format=2]

[ext_resource path="res://src/contract/Contract.gd" type="Script" id=1]
[ext_resource path="res://src/contract/objectives/ContractObjectiveClose.gd" type="Script" id=2]
[ext_resource path="res://src/contract/rewards/ContractReward.tscn" type="PackedScene" id=3]
[ext_resource path="res://src/items/SlowMo.tres" type="Resource" id=4]

[node name="ContractCloseAnother" type="Node"]
script = ExtResource( 1 )
title = "Old debts"
description = "Deal with something else"
coins = 100

[node name="Objectives" type="Node" parent="."]

[node name="CloseAnotherContract" type="Node" parent="Objectives"]
script = ExtResource( 2 )

[node name="Rewards" type="Node" parent="."]

[node name="Slowmo" parent="Rewards" instance=ExtResource( 3 )]
item = ExtResource( 4 )
amount = 1
