[gd_scene load_steps=3 format=2]

[ext_resource path="res://src/contract/objectives/ContractObjectiveAmount.gd" type="Script" id=1]
[ext_resource path="res://src/contract/Contract.gd" type="Script" id=2]

[node name="ContractCount" type="Node" groups=[
"closable_contracts",
]]
script = ExtResource( 2 )
title = "Little favor"
description = "Make some clicks for me"
coins = 50

[node name="Objectives" type="Node" parent="."]

[node name="ContractObjectiveAmount" type="Node" parent="Objectives"]
script = ExtResource( 1 )
target = 100

[node name="Rewards" type="Node" parent="."]
[connection signal="completed" from="Objectives/ContractObjectiveAmount" to="." method="_on_Objective_completed"]
