[gd_resource type="DynamicFont" load_steps=2 format=2]

[ext_resource path="res://assets/fonts/kenvector_future_thin.ttf" type="DynamicFontData" id=1]

[resource]
size = 32
font_data = ExtResource( 1 )
