[gd_scene load_steps=2 format=2]

[ext_resource path="res://src/contract/objectives/ContractObjectiveTime.gd" type="Script" id=1]


[node name="ContractObjectiveTime" type="Node"]
script = ExtResource( 1 )
period = 5.0

[node name="Timer" type="Timer" parent="."]
[connection signal="timeout" from="Timer" to="." method="_on_Timer_timeout"]
